Práctica 1. Introducción al Verilog/Practica1_modi/alu.vcd
$date
	Thu Oct 24 11:08:22 2019
$end
$version
	Icarus Verilog
$end
$timescale
	10ps
$end
$scope module alu_tb $end
$var wire 1 ! t_z $end
$var wire 1 " t_s $end
$var wire 1 # t_c $end
$var wire 4 $ t_R [3:0] $end
$var reg 4 % t_A [3:0] $end
$var reg 4 & t_B [3:0] $end
$var reg 1 ' t_L $end
$var reg 2 ( t_Op [1:0] $end
$var integer 32 ) errores [31:0] $end
$scope module mat $end
$var wire 4 * A [3:0] $end
$var wire 2 + ALUOp [1:0] $end
$var wire 4 , B [3:0] $end
$var wire 1 ' L $end
$var wire 1 - Op1_a $end
$var wire 1 . Op2_b $end
$var wire 1 / cin $end
$var wire 1 0 cpl $end
$var wire 1 ! zero $end
$var wire 1 " sign $end
$var wire 4 1 op2 [3:0] $end
$var wire 4 2 op1 [3:0] $end
$var wire 4 3 mux_compl [3:0] $end
$var wire 1 4 cout3 $end
$var wire 1 5 cout2 $end
$var wire 1 6 cout1 $end
$var wire 1 # carry $end
$var wire 4 7 R [3:0] $end
$scope module cal0 $end
$var wire 1 8 a $end
$var wire 1 9 b $end
$var wire 1 / c_in $end
$var wire 1 ' l $end
$var wire 2 : s [1:0] $end
$var wire 1 ; s_fa $end
$var wire 1 < s_cl $end
$var wire 1 = out $end
$var wire 1 6 c_out $end
$scope module cl1 $end
$var wire 1 8 a $end
$var wire 1 9 b $end
$var wire 2 > s [1:0] $end
$var wire 1 ? s_and $end
$var wire 1 @ s_not $end
$var wire 1 A s_or $end
$var wire 1 B s_xor $end
$var wire 1 < out $end
$scope module mux1 $end
$var wire 1 ? a $end
$var wire 1 A b $end
$var wire 1 B c $end
$var wire 1 @ d $end
$var wire 2 C s [1:0] $end
$var reg 1 < out $end
$upscope $end
$upscope $end
$scope module fa1 $end
$var wire 1 8 a $end
$var wire 1 9 b $end
$var wire 1 / cin $end
$var wire 1 ; sum $end
$var wire 1 6 cout $end
$upscope $end
$scope module mux $end
$var wire 1 ; a $end
$var wire 1 < b $end
$var wire 1 ' s $end
$var wire 1 = out $end
$upscope $end
$upscope $end
$scope module cal1 $end
$var wire 1 D a $end
$var wire 1 E b $end
$var wire 1 6 c_in $end
$var wire 1 ' l $end
$var wire 2 F s [1:0] $end
$var wire 1 G s_fa $end
$var wire 1 H s_cl $end
$var wire 1 I out $end
$var wire 1 5 c_out $end
$scope module cl1 $end
$var wire 1 D a $end
$var wire 1 E b $end
$var wire 2 J s [1:0] $end
$var wire 1 K s_and $end
$var wire 1 L s_not $end
$var wire 1 M s_or $end
$var wire 1 N s_xor $end
$var wire 1 H out $end
$scope module mux1 $end
$var wire 1 K a $end
$var wire 1 M b $end
$var wire 1 N c $end
$var wire 1 L d $end
$var wire 2 O s [1:0] $end
$var reg 1 H out $end
$upscope $end
$upscope $end
$scope module fa1 $end
$var wire 1 D a $end
$var wire 1 E b $end
$var wire 1 6 cin $end
$var wire 1 G sum $end
$var wire 1 5 cout $end
$upscope $end
$scope module mux $end
$var wire 1 G a $end
$var wire 1 H b $end
$var wire 1 ' s $end
$var wire 1 I out $end
$upscope $end
$upscope $end
$scope module cal2 $end
$var wire 1 P a $end
$var wire 1 Q b $end
$var wire 1 5 c_in $end
$var wire 1 ' l $end
$var wire 2 R s [1:0] $end
$var wire 1 S s_fa $end
$var wire 1 T s_cl $end
$var wire 1 U out $end
$var wire 1 4 c_out $end
$scope module cl1 $end
$var wire 1 P a $end
$var wire 1 Q b $end
$var wire 2 V s [1:0] $end
$var wire 1 W s_and $end
$var wire 1 X s_not $end
$var wire 1 Y s_or $end
$var wire 1 Z s_xor $end
$var wire 1 T out $end
$scope module mux1 $end
$var wire 1 W a $end
$var wire 1 Y b $end
$var wire 1 Z c $end
$var wire 1 X d $end
$var wire 2 [ s [1:0] $end
$var reg 1 T out $end
$upscope $end
$upscope $end
$scope module fa1 $end
$var wire 1 P a $end
$var wire 1 Q b $end
$var wire 1 5 cin $end
$var wire 1 S sum $end
$var wire 1 4 cout $end
$upscope $end
$scope module mux $end
$var wire 1 S a $end
$var wire 1 T b $end
$var wire 1 ' s $end
$var wire 1 U out $end
$upscope $end
$upscope $end
$scope module cal3 $end
$var wire 1 \ a $end
$var wire 1 ] b $end
$var wire 1 4 c_in $end
$var wire 1 ' l $end
$var wire 2 ^ s [1:0] $end
$var wire 1 _ s_fa $end
$var wire 1 ` s_cl $end
$var wire 1 a out $end
$var wire 1 # c_out $end
$scope module cl1 $end
$var wire 1 \ a $end
$var wire 1 ] b $end
$var wire 2 b s [1:0] $end
$var wire 1 c s_and $end
$var wire 1 d s_not $end
$var wire 1 e s_or $end
$var wire 1 f s_xor $end
$var wire 1 ` out $end
$scope module mux1 $end
$var wire 1 c a $end
$var wire 1 e b $end
$var wire 1 f c $end
$var wire 1 d d $end
$var wire 2 g s [1:0] $end
$var reg 1 ` out $end
$upscope $end
$upscope $end
$scope module fa1 $end
$var wire 1 \ a $end
$var wire 1 ] b $end
$var wire 1 4 cin $end
$var wire 1 _ sum $end
$var wire 1 # cout $end
$upscope $end
$scope module mux $end
$var wire 1 _ a $end
$var wire 1 ` b $end
$var wire 1 ' s $end
$var wire 1 a out $end
$upscope $end
$upscope $end
$scope module comp1 $end
$var wire 1 0 cpl $end
$var wire 4 h Sal [3:0] $end
$var wire 4 i Ent [3:0] $end
$upscope $end
$scope module mux1 $end
$var wire 4 j a [3:0] $end
$var wire 4 k b [3:0] $end
$var wire 1 - s $end
$var wire 4 l out [3:0] $end
$upscope $end
$scope module mux2 $end
$var wire 4 m a [3:0] $end
$var wire 4 n b [3:0] $end
$var wire 1 . s $end
$var wire 4 o out [3:0] $end
$upscope $end
$upscope $end
$scope task check $end
$var reg 1 p flag_carry $end
$var reg 1 q flag_sign $end
$var reg 1 r flag_zero $end
$var reg 5 s result [4:0] $end
$upscope $end
$upscope $end
$enddefinitions $end
#0
$dumpvars
bx s
xr
xq
xp
b0 o
b0 n
b0 m
b0 l
b0 k
b0 j
b0 i
b0 h
b0 g
0f
0e
1d
0c
b0 b
0a
0`
0_
b0 ^
0]
0\
b0 [
0Z
0Y
1X
0W
b0 V
0U
0T
0S
b0 R
0Q
0P
b0 O
0N
0M
1L
0K
b0 J
0I
0H
0G
b0 F
0E
0D
b0 C
0B
0A
1@
0?
b0 >
0=
0<
0;
b0 :
09
08
b0 7
06
05
04
b0 3
b0 2
b0 1
00
0/
1.
1-
b0 ,
b0 +
b0 *
b0 )
b0 (
0'
b0 &
b0 %
b0 $
0#
0"
1!
$end
#200
0!
b1 $
b1 7
1=
1A
1B
1;
19
b1 1
b1 h
b1 3
b1 i
b1 o
b1 &
b1 ,
b1 n
1r
0q
0p
b0 s
#400
1I
b10 $
b10 7
0=
1M
1N
1G
0A
0B
0;
1E
09
b10 1
b10 h
b10 3
b10 i
b10 o
b10 &
b10 ,
b10 n
0r
b1 s
#600
b11 $
b11 7
1=
1A
1B
1;
19
b11 1
b11 h
b11 3
b11 i
b11 o
b11 &
b11 ,
b11 n
b10 s
#800
1U
0I
b100 $
b100 7
0=
1Y
1Z
1S
0M
0N
0G
0A
0B
0;
1Q
0E
09
b100 1
b100 h
b100 3
b100 i
b100 o
b100 &
b100 ,
b100 n
b11 s
#1000
b101 $
b101 7
1=
1A
1B
1;
19
b101 1
b101 h
b101 3
b101 i
b101 o
b101 &
b101 ,
b101 n
b100 s
#1200
1I
b110 $
b110 7
0=
1M
1N
1G
0A
0B
0;
1E
09
b110 1
b110 h
b110 3
b110 i
b110 o
b110 &
b110 ,
b110 n
b101 s
#1400
b111 $
b111 7
1=
1A
1B
1;
19
b111 1
b111 h
b111 3
b111 i
b111 o
b111 &
b111 ,
b111 n
b110 s
#1600
1"
1a
0U
0I
b1000 $
b1000 7
0=
1e
1f
1_
0Y
0Z
0S
0M
0N
0G
0A
0B
0;
1]
0Q
0E
09
b1000 1
b1000 h
b1000 3
b1000 i
b1000 o
b1000 &
b1000 ,
b1000 n
b111 s
#1800
b1001 $
b1001 7
1=
1A
1B
1;
19
b1001 1
b1001 h
b1001 3
b1001 i
b1001 o
b1001 &
b1001 ,
b1001 n
1q
b1000 s
#2000
1I
b1010 $
b1010 7
0=
1M
1N
1G
0A
0B
0;
1E
09
b1010 1
b1010 h
b1010 3
b1010 i
b1010 o
b1010 &
b1010 ,
b1010 n
b1001 s
#2200
b1011 $
b1011 7
1=
1A
1B
1;
19
b1011 1
b1011 h
b1011 3
b1011 i
b1011 o
b1011 &
b1011 ,
b1011 n
b1010 s
#2400
1U
0I
b1100 $
b1100 7
0=
1Y
1Z
1S
0M
0N
0G
0A
0B
0;
1Q
0E
09
b1100 1
b1100 h
b1100 3
b1100 i
b1100 o
b1100 &
b1100 ,
b1100 n
b1011 s
#2600
b1101 $
b1101 7
1=
1A
1B
1;
19
b1101 1
b1101 h
b1101 3
b1101 i
b1101 o
b1101 &
b1101 ,
b1101 n
b1100 s
#2800
1I
b1110 $
b1110 7
0=
1M
1N
1G
0A
0B
0;
1E
09
b1110 1
b1110 h
b1110 3
b1110 i
b1110 o
b1110 &
b1110 ,
b1110 n
b1101 s
#3000
b1111 $
b1111 7
1=
1A
1B
1;
19
b1111 1
b1111 h
b1111 3
b1111 i
b1111 o
b1111 &
b1111 ,
b1111 n
b1110 s
#3200
0"
0a
0U
b1 $
b1 7
0I
0e
0f
0_
0Y
0Z
0S
0M
0N
0G
0@
0]
0Q
0E
09
18
b0 1
b0 h
b1 2
b1 l
b0 3
b0 i
b0 o
b1 %
b1 *
b1 k
b1 m
b0 &
b0 ,
b0 n
b1111 s
#3400
1I
1<
b10 $
b10 7
0=
1G
1?
0B
0;
16
19
b1 1
b1 h
b1 3
b1 i
b1 o
b1 &
b1 ,
b1 n
0q
b1 s
#3600
0<
b11 $
b11 7
1=
1M
1N
0?
1B
1;
06
1E
09
b10 1
b10 h
b10 3
b10 i
b10 o
b10 &
b10 ,
b10 n
b10 s
#3800
1U
0I
1S
1<
b100 $
b100 7
0=
0G
15
1?
0B
0;
16
19
b11 1
b11 h
b11 3
b11 i
b11 o
b11 &
b11 ,
b11 n
b11 s
#4000
0<
b101 $
b101 7
1=
1Y
1Z
0M
0N
05
0?
1B
1;
06
1Q
0E
09
b100 1
b100 h
b100 3
b100 i
b100 o
b100 &
b100 ,
b100 n
b100 s
#4200
1I
1<
b110 $
b110 7
0=
1G
1?
0B
0;
16
19
b101 1
b101 h
b101 3
b101 i
b101 o
b101 &
b101 ,
b101 n
b101 s
#4400
0<
b111 $
b111 7
1=
1M
1N
0?
1B
1;
06
1E
09
b110 1
b110 h
b110 3
b110 i
b110 o
b110 &
b110 ,
b110 n
b110 s
#4600
1"
1a
0U
1_
0I
0S
14
1<
b1000 $
b1000 7
0=
0G
15
1?
0B
0;
16
19
b111 1
b111 h
b111 3
b111 i
b111 o
b111 &
b111 ,
b111 n
b111 s
#4800
0<
b1001 $
b1001 7
1=
1e
1f
0Y
0Z
04
0M
0N
05
0?
1B
1;
06
1]
0Q
0E
09
b1000 1
b1000 h
b1000 3
b1000 i
b1000 o
b1000 &
b1000 ,
b1000 n
1q
b1000 s
#5000
1I
1<
b1010 $
b1010 7
0=
1G
1?
0B
0;
16
19
b1001 1
b1001 h
b1001 3
b1001 i
b1001 o
b1001 &
b1001 ,
b1001 n
b1001 s
#5200
0<
b1011 $
b1011 7
1=
1M
1N
0?
1B
1;
06
1E
09
b1010 1
b1010 h
b1010 3
b1010 i
b1010 o
b1010 &
b1010 ,
b1010 n
b1010 s
#5400
1U
0I
1S
1<
b1100 $
b1100 7
0=
0G
15
1?
0B
0;
16
19
b1011 1
b1011 h
b1011 3
b1011 i
b1011 o
b1011 &
b1011 ,
b1011 n
b1011 s
#5600
0<
b1101 $
b1101 7
1=
1Y
1Z
0M
0N
05
0?
1B
1;
06
1Q
0E
09
b1100 1
b1100 h
b1100 3
b1100 i
b1100 o
b1100 &
b1100 ,
b1100 n
b1100 s
#5800
1I
1<
b1110 $
b1110 7
0=
1G
1?
0B
0;
16
19
b1101 1
b1101 h
b1101 3
b1101 i
b1101 o
b1101 &
b1101 ,
b1101 n
b1101 s
#6000
0<
b1111 $
b1111 7
1=
1M
1N
0?
1B
1;
06
1E
09
b1110 1
b1110 h
b1110 3
b1110 i
b1110 o
b1110 &
b1110 ,
b1110 n
b1110 s
#6200
0"
1!
0a
0U
0_
1#
0I
0S
14
1<
b0 $
b0 7
0=
0G
15
1?
0B
0;
16
19
b1111 1
b1111 h
b1111 3
b1111 i
b1111 o
b1111 &
b1111 ,
b1111 n
b1111 s
#6400
0!
0U
b10 $
b10 7
1I
0<
05
0e
0f
0#
0Y
0Z
0S
04
0L
1G
0?
0A
1@
06
0]
0Q
0E
09
1D
08
b0 1
b0 h
b10 2
b10 l
b0 3
b0 i
b0 o
b10 %
b10 *
b10 k
b10 m
b0 &
b0 ,
b0 n
1r
0q
1p
b10000 s
#6600
b11 $
b11 7
1=
1A
1B
1;
19
b1 1
b1 h
b1 3
b1 i
b1 o
b1 &
b1 ,
b1 n
0r
0p
b10 s
#6800
1U
1H
0I
1S
b100 $
b100 7
0=
1K
0N
0G
15
0A
0B
0;
1E
09
b10 1
b10 h
b10 3
b10 i
b10 o
b10 &
b10 ,
b10 n
b11 s
#7000
b101 $
b101 7
1=
1A
1B
1;
19
b11 1
b11 h
b11 3
b11 i
b11 o
b11 &
b11 ,
b11 n
b100 s
#7200
0H
1I
b110 $
b110 7
0=
1Y
1Z
0K
1N
1G
05
0A
0B
0;
1Q
0E
09
b100 1
b100 h
b100 3
b100 i
b100 o
b100 &
b100 ,
b100 n
b101 s
#7400
b111 $
b111 7
1=
1A
1B
1;
19
b101 1
b101 h
b101 3
b101 i
b101 o
b101 &
b101 ,
b101 n
b110 s
#7600
1"
1a
0U
1_
1H
0I
0S
14
b1000 $
b1000 7
0=
1K
0N
0G
15
0A
0B
0;
1E
09
b110 1
b110 h
b110 3
b110 i
b110 o
b110 &
b110 ,
b110 n
b111 s
#7800
b1001 $
b1001 7
1=
1A
1B
1;
19
b111 1
b111 h
b111 3
b111 i
b111 o
b111 &
b111 ,
b111 n
1q
b1000 s
#8000
0H
1I
b1010 $
b1010 7
0=
1e
1f
0Y
0Z
04
0K
1N
1G
05
0A
0B
0;
1]
0Q
0E
09
b1000 1
b1000 h
b1000 3
b1000 i
b1000 o
b1000 &
b1000 ,
b1000 n
b1001 s
#8200
b1011 $
b1011 7
1=
1A
1B
1;
19
b1001 1
b1001 h
b1001 3
b1001 i
b1001 o
b1001 &
b1001 ,
b1001 n
b1010 s
#8400
1U
1H
0I
1S
b1100 $
b1100 7
0=
1K
0N
0G
15
0A
0B
0;
1E
09
b1010 1
b1010 h
b1010 3
b1010 i
b1010 o
b1010 &
b1010 ,
b1010 n
b1011 s
#8600
b1101 $
b1101 7
1=
1A
1B
1;
19
b1011 1
b1011 h
b1011 3
b1011 i
b1011 o
b1011 &
b1011 ,
b1011 n
b1100 s
#8800
0H
1I
b1110 $
b1110 7
0=
1Y
1Z
0K
1N
1G
05
0A
0B
0;
1Q
0E
09
b1100 1
b1100 h
b1100 3
b1100 i
b1100 o
b1100 &
b1100 ,
b1100 n
b1101 s
#9000
b1111 $
b1111 7
1=
1A
1B
1;
19
b1101 1
b1101 h
b1101 3
b1101 i
b1101 o
b1101 &
b1101 ,
b1101 n
b1110 s
#9200
0"
1!
0a
0U
0_
1#
1H
0I
0S
14
b0 $
b0 7
0=
1K
0N
0G
15
0A
0B
0;
1E
09
b1110 1
b1110 h
b1110 3
b1110 i
b1110 o
b1110 &
b1110 ,
b1110 n
b1111 s
#9400
0!
b1 $
b1 7
1=
1A
1B
1;
19
b1111 1
b1111 h
b1111 3
b1111 i
b1111 o
b1111 &
b1111 ,
b1111 n
1r
0q
1p
b10000 s
#9600
0H
b11 $
b11 7
1I
0e
0f
0#
0Y
0Z
04
0K
1N
1G
05
0@
0]
0Q
0E
09
18
b0 1
b0 h
b11 2
b11 l
b0 3
b0 i
b0 o
b11 %
b11 *
b11 k
b11 m
b0 &
b0 ,
b0 n
0r
b10001 s
#9800
1U
0I
1S
1<
b100 $
b100 7
0=
0G
15
1?
0B
0;
16
19
b1 1
b1 h
b1 3
b1 i
b1 o
b1 &
b1 ,
b1 n
0p
b11 s
#10000
1H
0<
b101 $
b101 7
1=
1K
0N
0?
1B
1;
06
1E
09
b10 1
b10 h
b10 3
b10 i
b10 o
b10 &
b10 ,
b10 n
b100 s
#10200
1I
1<
b110 $
b110 7
0=
1G
1?
0B
0;
16
19
b11 1
b11 h
b11 3
b11 i
b11 o
b11 &
b11 ,
b11 n
b101 s
#10400
0"
0a
1U
0_
0H
0<
b111 $
b111 7
1=
05
1Y
1Z
1S
04
0K
1N
0?
1B
1;
06
1Q
0E
09
b100 1
b100 h
b100 3
b100 i
b100 o
b100 &
b100 ,
b100 n
b110 s
#10600
1"
1a
0U
1_
0I
0S
14
1<
b1000 $
b1000 7
0=
0G
15
1?
0B
0;
16
19
b101 1
b101 h
b101 3
b101 i
b101 o
b101 &
b101 ,
b101 n
b111 s
#10800
1H
0<
b1001 $
b1001 7
1=
1K
0N
0?
1B
1;
06
1E
09
b110 1
b110 h
b110 3
b110 i
b110 o
b110 &
b110 ,
b110 n
1q
b1000 s
#11000
1I
1<
b1010 $
b1010 7
0=
1G
1?
0B
0;
16
19
b111 1
b111 h
b111 3
b111 i
b111 o
b111 &
b111 ,
b111 n
b1001 s
#11200
0U
0H
0<
b1011 $
b1011 7
1=
05
1e
1f
0Y
0Z
0S
04
0K
1N
0?
1B
1;
06
1]
0Q
0E
09
b1000 1
b1000 h
b1000 3
b1000 i
b1000 o
b1000 &
b1000 ,
b1000 n
b1010 s
#11400
1U
0I
1S
1<
b1100 $
b1100 7
0=
0G
15
1?
0B
0;
16
19
b1001 1
b1001 h
b1001 3
b1001 i
b1001 o
b1001 &
b1001 ,
b1001 n
b1011 s
#11600
1H
0<
b1101 $
b1101 7
1=
1K
0N
0?
1B
1;
06
1E
09
b1010 1
b1010 h
b1010 3
b1010 i
b1010 o
b1010 &
b1010 ,
b1010 n
b1100 s
#11800
1I
1<
b1110 $
b1110 7
0=
1G
1?
0B
0;
16
19
b1011 1
b1011 h
b1011 3
b1011 i
b1011 o
b1011 &
b1011 ,
b1011 n
b1101 s
#12000
1"
1a
1U
1_
0#
0H
0<
b1111 $
b1111 7
1=
05
1Y
1Z
1S
04
0K
1N
0?
1B
1;
06
1Q
0E
09
b1100 1
b1100 h
b1100 3
b1100 i
b1100 o
b1100 &
b1100 ,
b1100 n
b1110 s
#12200
0"
1!
0a
0U
0_
1#
0I
0S
14
1<
b0 $
b0 7
0=
0G
15
1?
0B
0;
16
19
b1101 1
b1101 h
b1101 3
b1101 i
b1101 o
b1101 &
b1101 ,
b1101 n
b1111 s
#12400
0!
1H
0<
b1 $
b1 7
1=
1K
0N
0?
1B
1;
06
1E
09
b1110 1
b1110 h
b1110 3
b1110 i
b1110 o
b1110 &
b1110 ,
b1110 n
1r
0q
1p
b10000 s
#12600
1I
1<
b10 $
b10 7
0=
1G
1?
0B
0;
16
19
b1111 1
b1111 h
b1111 3
b1111 i
b1111 o
b1111 &
b1111 ,
b1111 n
0r
b10001 s
#12800
0"
1U
0a
1S
04
0H
b100 $
b100 7
0I
0<
0e
0f
0_
0#
05
0X
0K
0M
1L
0G
0?
0A
1@
06
0]
0Q
0E
09
1P
0D
08
b0 1
b0 h
b100 2
b100 l
b0 3
b0 i
b0 o
b100 %
b100 *
b100 k
b100 m
b0 &
b0 ,
b0 n
b10010 s
#13000
b101 $
b101 7
1=
1A
1B
1;
19
b1 1
b1 h
b1 3
b1 i
b1 o
b1 &
b1 ,
b1 n
0p
b100 s
#13200
1I
b110 $
b110 7
0=
1M
1N
1G
0A
0B
0;
1E
09
b10 1
b10 h
b10 3
b10 i
b10 o
b10 &
b10 ,
b10 n
b101 s
#13400
b111 $
b111 7
1=
1A
1B
1;
19
b11 1
b11 h
b11 3
b11 i
b11 o
b11 &
b11 ,
b11 n
b110 s
#13600
1"
1a
1T
0U
1_
0I
b1000 $
b1000 7
0=
1W
0Z
0S
14
0M
0N
0G
0A
0B
0;
1Q
0E
09
b100 1
b100 h
b100 3
b100 i
b100 o
b100 &
b100 ,
b100 n
b111 s
#13800
b1001 $
b1001 7
1=
1A
1B
1;
19
b101 1
b101 h
b101 3
b101 i
b101 o
b101 &
b101 ,
b101 n
1q
b1000 s
#14000
1I
b1010 $
b1010 7
0=
1M
1N
1G
0A
0B
0;
1E
09
b110 1
b110 h
b110 3
b110 i
b110 o
b110 &
b110 ,
b110 n
b1001 s
#14200
b1011 $
b1011 7
1=
1A
1B
1;
19
b111 1
b111 h
b111 3
b111 i
b111 o
b111 &
b111 ,
b111 n
b1010 s
#14400
0T
1U
0I
b1100 $
b1100 7
0=
1e
1f
0W
1Z
1S
04
0M
0N
0G
0A
0B
0;
1]
0Q
0E
09
b1000 1
b1000 h
b1000 3
b1000 i
b1000 o
b1000 &
b1000 ,
b1000 n
b1011 s
#14600
b1101 $
b1101 7
1=
1A
1B
1;
19
b1001 1
b1001 h
b1001 3
b1001 i
b1001 o
b1001 &
b1001 ,
b1001 n
b1100 s
#14800
1I
b1110 $
b1110 7
0=
1M
1N
1G
0A
0B
0;
1E
09
b1010 1
b1010 h
b1010 3
b1010 i
b1010 o
b1010 &
b1010 ,
b1010 n
b1101 s
#15000
b1111 $
b1111 7
1=
1A
1B
1;
19
b1011 1
b1011 h
b1011 3
b1011 i
b1011 o
b1011 &
b1011 ,
b1011 n
b1110 s
#15200
0"
1!
0a
1T
0U
0_
1#
0I
b0 $
b0 7
0=
1W
0Z
0S
14
0M
0N
0G
0A
0B
0;
1Q
0E
09
b1100 1
b1100 h
b1100 3
b1100 i
b1100 o
b1100 &
b1100 ,
b1100 n
b1111 s
#15400
0!
b1 $
b1 7
1=
1A
1B
1;
19
b1101 1
b1101 h
b1101 3
b1101 i
b1101 o
b1101 &
b1101 ,
b1101 n
1r
0q
1p
b10000 s
#15600
1I
b10 $
b10 7
0=
1M
1N
1G
0A
0B
0;
1E
09
b1110 1
b1110 h
b1110 3
b1110 i
b1110 o
b1110 &
b1110 ,
b1110 n
0r
b10001 s
#15800
b11 $
b11 7
1=
1A
1B
1;
19
b1111 1
b1111 h
b1111 3
b1111 i
b1111 o
b1111 &
b1111 ,
b1111 n
b10010 s
#16000
0T
1U
b101 $
b101 7
0I
0e
0f
0#
0W
1Z
1S
04
0M
0N
0G
0@
0]
0Q
0E
09
18
b0 1
b0 h
b101 2
b101 l
b0 3
b0 i
b0 o
b101 %
b101 *
b101 k
b101 m
b0 &
b0 ,
b0 n
b10011 s
#16200
1I
1<
b110 $
b110 7
0=
1G
1?
0B
0;
16
19
b1 1
b1 h
b1 3
b1 i
b1 o
b1 &
b1 ,
b1 n
0p
b101 s
#16400
0<
b111 $
b111 7
1=
1M
1N
0?
1B
1;
06
1E
09
b10 1
b10 h
b10 3
b10 i
b10 o
b10 &
b10 ,
b10 n
b110 s
#16600
1"
1a
0U
1_
0I
0S
14
1<
b1000 $
b1000 7
0=
0G
15
1?
0B
0;
16
19
b11 1
b11 h
b11 3
b11 i
b11 o
b11 &
b11 ,
b11 n
b111 s
#16800
1T
0<
b1001 $
b1001 7
1=
1W
0Z
0M
0N
05
0?
1B
1;
06
1Q
0E
09
b100 1
b100 h
b100 3
b100 i
b100 o
b100 &
b100 ,
b100 n
1q
b1000 s
#17000
1I
1<
b1010 $
b1010 7
0=
1G
1?
0B
0;
16
19
b101 1
b101 h
b101 3
b101 i
b101 o
b101 &
b101 ,
b101 n
b1001 s
#17200
0<
b1011 $
b1011 7
1=
1M
1N
0?
1B
1;
06
1E
09
b110 1
b110 h
b110 3
b110 i
b110 o
b110 &
b110 ,
b110 n
b1010 s
#17400
1U
0I
1S
1<
b1100 $
b1100 7
0=
0G
15
1?
0B
0;
16
19
b111 1
b111 h
b111 3
b111 i
b111 o
b111 &
b111 ,
b111 n
b1011 s
#17600
1"
1a
0T
04
0<
b1101 $
b1101 7
1=
1e
1f
1_
0#
0W
1Z
0M
0N
05
0?
1B
1;
06
1]
0Q
0E
09
b1000 1
b1000 h
b1000 3
b1000 i
b1000 o
b1000 &
b1000 ,
b1000 n
b1100 s
#17800
1I
1<
b1110 $
b1110 7
0=
1G
1?
0B
0;
16
19
b1001 1
b1001 h
b1001 3
b1001 i
b1001 o
b1001 &
b1001 ,
b1001 n
b1101 s
#18000
0<
b1111 $
b1111 7
1=
1M
1N
0?
1B
1;
06
1E
09
b1010 1
b1010 h
b1010 3
b1010 i
b1010 o
b1010 &
b1010 ,
b1010 n
b1110 s
#18200
0"
1!
0a
0U
0_
1#
0I
0S
14
1<
b0 $
b0 7
0=
0G
15
1?
0B
0;
16
19
b1011 1
b1011 h
b1011 3
b1011 i
b1011 o
b1011 &
b1011 ,
b1011 n
b1111 s
#18400
0!
1T
0<
b1 $
b1 7
1=
1W
0Z
0M
0N
05
0?
1B
1;
06
1Q
0E
09
b1100 1
b1100 h
b1100 3
b1100 i
b1100 o
b1100 &
b1100 ,
b1100 n
1r
0q
1p
b10000 s
#18600
1I
1<
b10 $
b10 7
0=
1G
1?
0B
0;
16
19
b1101 1
b1101 h
b1101 3
b1101 i
b1101 o
b1101 &
b1101 ,
b1101 n
0r
b10001 s
#18800
0<
b11 $
b11 7
1=
1M
1N
0?
1B
1;
06
1E
09
b1110 1
b1110 h
b1110 3
b1110 i
b1110 o
b1110 &
b1110 ,
b1110 n
b10010 s
#19000
1U
0I
1S
1<
b100 $
b100 7
0=
0G
15
1?
0B
0;
16
19
b1111 1
b1111 h
b1111 3
b1111 i
b1111 o
b1111 &
b1111 ,
b1111 n
b10011 s
#19200
0"
04
0a
0T
1U
b110 $
b110 7
1I
0<
05
0e
0f
0_
0#
0W
1Z
1S
0L
1G
0?
0A
1@
06
0]
0Q
0E
09
1D
08
b0 1
b0 h
b110 2
b110 l
b0 3
b0 i
b0 o
b110 %
b110 *
b110 k
b110 m
b0 &
b0 ,
b0 n
b10100 s
#19400
b111 $
b111 7
1=
1A
1B
1;
19
b1 1
b1 h
b1 3
b1 i
b1 o
b1 &
b1 ,
b1 n
0p
b110 s
#19600
1"
1a
0U
1_
1H
0I
0S
14
b1000 $
b1000 7
0=
1K
0N
0G
15
0A
0B
0;
1E
09
b10 1
b10 h
b10 3
b10 i
b10 o
b10 &
b10 ,
b10 n
b111 s
#19800
b1001 $
b1001 7
1=
1A
1B
1;
19
b11 1
b11 h
b11 3
b11 i
b11 o
b11 &
b11 ,
b11 n
1q
b1000 s
#20000
1T
0H
1I
b1010 $
b1010 7
0=
1W
0Z
0K
1N
1G
05
0A
0B
0;
1Q
0E
09
b100 1
b100 h
b100 3
b100 i
b100 o
b100 &
b100 ,
b100 n
b1001 s
#20200
b1011 $
b1011 7
1=
1A
1B
1;
19
b101 1
b101 h
b101 3
b101 i
b101 o
b101 &
b101 ,
b101 n
b1010 s
#20400
1U
1H
0I
1S
b1100 $
b1100 7
0=
1K
0N
0G
15
0A
0B
0;
1E
09
b110 1
b110 h
b110 3
b110 i
b110 o
b110 &
b110 ,
b110 n
b1011 s
#20600
b1101 $
b1101 7
1=
1A
1B
1;
19
b111 1
b111 h
b111 3
b111 i
b111 o
b111 &
b111 ,
b111 n
b1100 s
#20800
1"
1a
0T
0H
1I
04
b1110 $
b1110 7
0=
1e
1f
1_
0#
0W
1Z
0K
1N
1G
05
0A
0B
0;
1]
0Q
0E
09
b1000 1
b1000 h
b1000 3
b1000 i
b1000 o
b1000 &
b1000 ,
b1000 n
b1101 s
#21000
b1111 $
b1111 7
1=
1A
1B
1;
19
b1001 1
b1001 h
b1001 3
b1001 i
b1001 o
b1001 &
b1001 ,
b1001 n
b1110 s
#21200
0"
1!
0a
0U
0_
1#
1H
0I
0S
14
b0 $
b0 7
0=
1K
0N
0G
15
0A
0B
0;
1E
09
b1010 1
b1010 h
b1010 3
b1010 i
b1010 o
b1010 &
b1010 ,
b1010 n
b1111 s
#21400
0!
b1 $
b1 7
1=
1A
1B
1;
19
b1011 1
b1011 h
b1011 3
b1011 i
b1011 o
b1011 &
b1011 ,
b1011 n
1r
0q
1p
b10000 s
#21600
1T
0H
1I
b10 $
b10 7
0=
1W
0Z
0K
1N
1G
05
0A
0B
0;
1Q
0E
09
b1100 1
b1100 h
b1100 3
b1100 i
b1100 o
b1100 &
b1100 ,
b1100 n
0r
b10001 s
#21800
b11 $
b11 7
1=
1A
1B
1;
19
b1101 1
b1101 h
b1101 3
b1101 i
b1101 o
b1101 &
b1101 ,
b1101 n
b10010 s
#22000
1U
1H
0I
1S
b100 $
b100 7
0=
1K
0N
0G
15
0A
0B
0;
1E
09
b1110 1
b1110 h
b1110 3
b1110 i
b1110 o
b1110 &
b1110 ,
b1110 n
b10011 s
#22200
b101 $
b101 7
1=
1A
1B
1;
19
b1111 1
b1111 h
b1111 3
b1111 i
b1111 o
b1111 &
b1111 ,
b1111 n
b10100 s
#22400
0"
0a
0T
0H
b111 $
b111 7
1I
04
0e
0f
0_
0#
0W
1Z
0K
1N
1G
05
0@
0]
0Q
0E
09
18
b0 1
b0 h
b111 2
b111 l
b0 3
b0 i
b0 o
b111 %
b111 *
b111 k
b111 m
b0 &
b0 ,
b0 n
b10101 s
#22600
1"
1a
0U
1_
0I
0S
14
1<
b1000 $
b1000 7
0=
0G
15
1?
0B
0;
16
19
b1 1
b1 h
b1 3
b1 i
b1 o
b1 &
b1 ,
b1 n
0p
b111 s
